\relax 
\citation{Ariane}
\citation{LeeloArtikkel}
\citation{OWASP}
\citation{Wecoo}
\citation{OWASP}
\citation{LeeloArtikkel}
\@writefile{toc}{\contentsline {section}{\numberline {I}Introduction}{1}}
\@writefile{toc}{\contentsline {section}{\numberline {II}Description}{1}}
\@writefile{toc}{\contentsline {subsection}{\numberline {\unhbox \voidb@x \hbox {II-A}}Security testing}{1}}
\citation{OliveriArtikkel}
\citation{OliveriArtikkel}
\citation{Browsershots}
\citation{BrowserSnaps}
\citation{Litmus}
\citation{CrossBrowserTesting.com}
\citation{Browserling}
\citation{IETester}
\citation{BrowserStack}
\citation{Crawljax}
\citation{Selenium}
\@writefile{lot}{\contentsline {table}{\numberline {I}{\ignorespaces OWASP’s Top 10 Application Security Risks of 2004, 2007 and 2013 \cite  {OWASP} .}}{2}}
\newlabel{tbl:OWASP-top10}{{I}{2}}
\@writefile{toc}{\contentsline {subsection}{\numberline {\unhbox \voidb@x \hbox {II-B}}Cross-browser testing}{2}}
\citation{KarliArtikkel}
\citation{KarliArtikkel}
\citation{Selenium}
\citation{Sahi}
\citation{OliveriArtikkel}
\citation{Crawljax}
\citation{LeeloArtikkel}
\citation{OWASP}
\citation{OWASP}
\citation{OWASP}
\@writefile{toc}{\contentsline {subsection}{\numberline {\unhbox \voidb@x \hbox {II-C}}AJAX web application testing}{3}}
\newlabel{sec:AjaxTesting}{{\unhbox \voidb@x \hbox {II-C}}{3}}
\@writefile{lot}{\contentsline {table}{\numberline {II}{\ignorespaces Some of the available plugins for the ATUSA system.}}{3}}
\newlabel{tbl:atusa-plugin}{{II}{3}}
\@writefile{toc}{\contentsline {section}{\numberline {III}Analysis}{3}}
\@writefile{toc}{\contentsline {subsection}{\numberline {\unhbox \voidb@x \hbox {III-A}}On security testing}{3}}
\@writefile{toc}{\contentsline {subsection}{\numberline {\unhbox \voidb@x \hbox {III-B}}On cross-browser compatibility testing}{3}}
\citation{W3Counter}
\citation{OliveriArtikkel}
\citation{KarliArtikkel}
\bibstyle{unsrt}
\bibdata{main}
\bibcite{Ariane}{1}
\bibcite{LeeloArtikkel}{2}
\bibcite{OWASP}{3}
\bibcite{Wecoo}{4}
\bibcite{OliveriArtikkel}{5}
\bibcite{Browsershots}{6}
\bibcite{BrowserSnaps}{7}
\@writefile{toc}{\contentsline {subsection}{\numberline {\unhbox \voidb@x \hbox {III-C}}On AJAX testing}{4}}
\@writefile{toc}{\contentsline {subsection}{\numberline {\unhbox \voidb@x \hbox {III-D}}Strategies}{4}}
\@writefile{toc}{\contentsline {section}{\numberline {IV}Conclusion}{4}}
\@writefile{toc}{\contentsline {section}{\numberline {V}Distribution of work}{4}}
\@writefile{toc}{\contentsline {section}{References}{4}}
\bibcite{Litmus}{8}
\bibcite{CrossBrowserTesting.com}{9}
\bibcite{Browserling}{10}
\bibcite{IETester}{11}
\bibcite{BrowserStack}{12}
\bibcite{Crawljax}{13}
\bibcite{Selenium}{14}
\bibcite{KarliArtikkel}{15}
\bibcite{Sahi}{16}
\bibcite{W3Counter}{17}
